{
  "1": {
    "text": "Mika is currently completing a vocational training. Mr Olsson is a teacher from Mika's program, one day he presents to the class what is an international mobility. Mika seems interested ! What does he do ? ",
    "choices": [
      {
        "option": "He goes and asks questions at the end of class",
        "next": 2
      },
      {
        "option": "He decides to search on his own on the internet",
        "next": 3
      }
    ]
  },
  "2": {
    "text": "Mika has dyslexia, he struggles to find and analyse information. He is somewhat lost, where can he find help ? ",
    "choices": [
      {
        "option": "From his family",
        "next": 4
      },
      {
        "option": "From Mr Olsson",
        "next": 3
      },
      {
        "option": "He can asks students that have already experienced internatinal mobility",
        "next": 3
      },
      {
        "option": "He knows how to deal with this, he has softwares to help him read the information",
        "next": 4
      }
    ]
  },
  "3": {
    "text": "He wants to clarify excatly what type of international mobility is suited for him. It appears to be an Erasmus exchange program. Indeed, as he needs to complete an internship it could be a could idea to do it abroad. Mr Olsson presents <a href=\"https://erasmus-plus.ec.europa.eu/fr\" target=\"_blank\">THIS website</a> ! Mika feels scared, he never left hom. How can he prepare ? ",
    "choices": [
      {
        "option": "Wait ! He needs to choose a country first ! ",
        "next": 5
      },
      {
        "option": "After finding out more about the subject, he goes back to see Mr Olsson because he needs to be rassured in the midst of all this information",
        "next": 6
      }
    ]
  },
  "4": {
    "text": "Even though he has an idea of what international mobility is now, he still feels scared. He has never left home before ! How can he prepare ? ",
    "choices": [
      {
        "option": "Wait ! He needs to choose a country first ! ",
        "next": 5
      },
      {
        "option": "After finding out more about the subject, he goes back to see Mr Olsson because he needs to be rassured in the midst of all this information",
        "next": 6
      }
    ]
  },
  "5": {
    "text": "Great ! Let's pick a country then. ",
    "choices": [
      {
        "option": "Confirm",
        "next": 7
      }
    ],
    "extra": ["countrySelector"]
  },
  "6": {
    "text": "Mr Olsson explains to Mika that he needs to choose a country he would like to go to for his international mobility",
    "choices": [
      {
        "option": "Confirm",
        "next": 7
      }
    ],
    "extra": ["countrySelector"]
  },
  "7": {
    "text": "Congradulations! Mika has decided to go to [country] to do this internship [link]! This professional and international experience will be of great benefit. Which skills do you think Mika will develop ! Let's play this mini game. //Mini Game Soft Skills//",
    "choices": [
      {
        "option": "// Success //",
        "next": 8
      },
      {
        "option": "//Failure//",
        "next": 8
      }
    ]
  },
  "8": {
    "text": "As we know, Mika has dyslexia which means that he will experience difficulties to develop certain softskills. He feels a bit overwhelmed and discouraged. Do you think his special needs can be a barrier to him going abroad ? ",
    "choices": [
      {
        "option": "Yes, he can't go, it is too difficult for him!",
        "next": 9
      },
      {
        "option": "No, experiencing international mobility will help him surpass his difficulties. ",
        "next": 10
      }
    ]
  },
  "9": {
    "text": "Mika has decided not to pursue this adventure. Indeed, there are too many barriers : his dyslexia which prevent him from communicating clearly with others, his parents can't help him financially and he only speaks his native language ! One day while Mika is scrollling on social media, he befriends Laïla who is currently in a wheelchair and preparing an international mobility. Fun fact : they speak through a digital translator to communicate ! What do they talk about ? ",
    "choices": [
      {
        "option": "They talk about how they can learn new languages",
        "next": 11
      },
      {
        "option": "They talk about scholarships",
        "next": 12
      },
      {
        "option": "They talk about their special needs",
        "next": 13
      }
    ]
  },
  "10": {
    "text": "Mika is now convinced that international mobility will be a great experience for him. But he needs to deal with all administrative procedures which is particularly difficult for him to do on his own. No worries, someone trustworthy has offered to help him. Let's see what is on the checklist ! Mini game administrative procedures",
    "choices": [
      {
        "option": "// Success //",
        "next": 14
      },
      {
        "option": "//Failure//",
        "next": 14
      }
    ]
  },
  "11": {
    "text": "They chat about the fact that they need to improve their foreign languages ! Mika thinks it is important to know the language before going abroad but Laïla explains to him that he can learn during the international mobility. What do you think ? ",
    "choices": [
      {
        "option": "Mika is right ! He needs the basic knowledge in the language before going abroad. ",
        "next": 15
      },
      {
        "option": "Laïla is right : You can learn and improve a languague when you are immersed in the country",
        "next": 16
      }
    ]
  },
  "12": {
    "text": "Laïla explains to Mika that with the Erasmus exchange program he can get a scholarship ! Mika is now convinced that international mobility will be a great experience for him. But he needs to deal with all administrative procedures which is particularly difficult for him to do on his own. No worries, someone trustworthy has offered to help him. Let's see what is on the checklist ! Mini game administrative procedures",
    "choices": [
      {
        "option": "// Success //",
        "next": 17
      },
      {
        "option": "//Failure//",
        "next": 17
      }
    ]
  },
  "13": {
    "text": "As Mika and Laïla share common constraints due to their difficulties, they try to find as much information as possible in order to be reassured. They need resources, tools, people to adapt in the best way possible. Here are some examples of what they can look for <a href=\"https://mobility-with-disabilities.org/fr/\" target=\"_blank\">IMDwebsite</a>. Even though they do not share exacly the same barriers, communication between peers is always a good idea. They also help eachothers to deal with all administratives procedures. Let's see what they need think about. Mini game administrative procedures",
    "choices": [
      {
        "option": "// Success //",
        "next": 17
      },
      {
        "option": "//Failure//",
        "next": 17
      }
    ]
  },
  "14": {
    "text": "Mika has also dyspraxia, which means that he struggles to find his way around especially if he does not know the area. Aware of his difficulties, how can he prepare ? ",
    "choices": [
      {
        "option": "He tries to get as much information from a student living in the country in order for him not to get lost",
        "next": 17
      },
      {
        "option": "He convinces other students from his class to go with him on this international mobility",
        "next": 17
      }
    ]
  },
  "15": {
    "text": "Ok ! How can he adapt then ? ",
    "choices": [
      {
        "option": "He finds an association he can practive the language with [link]",
        "next": 18
      },
      {
        "option": "He downloads an app to learn the language and watches a lot of movies ! ",
        "next": -1
      }
    ]
  },
  "16": {
    "text": "Ok ! It does not matter. He will improve the language during the international mobility. Thanks to his chat with Laïla, Mika is now convinced that international mobility will be a great experience for him. But he needs to deal with all administrative procedures which is particularly difficult for him to do on his own. No worries, someone trustworthy has offered to help him. Let's see what is on the checklist ! Mini game administrative procedures",
    "choices": [
      {
        "option": "// Success //",
        "next": 17
      },
      {
        "option": "//Failure//",
        "next": 17
      }
    ]
  },
  "17": {
    "text": "Mika and Laïla aslo talked about the differences between cultures, and Laïla explains what we call cultural shock. \nMini game cultural shock",
    "choices": [
      {
        "option": "// Success //",
        "next": 19
      },
      {
        "option": "//Failure//",
        "next": 19
      }
    ]
  },
  "18": {
    "text": "He found an association and practiced a bit the language. Mika is now convinced that international mobility will be a great experience for him. But he needs to deal with all administrative procedures which is particularly difficult for him to do on his own. No worries, someone trustworthy has offered to help him. Let's see what is on the checklist ! Mini game administrative procedures",
    "choices": [
      {
        "option": "// Success //",
        "next": 17
      },
      {
        "option": "//Failure//",
        "next": 17
      }
    ]
  },
  "19": {
    "text": "Mika is now as ready as he can be ! Thanks to you he has all the information he needs to carry out an international mobility in the best conditions. What do you want to do next ? ",
    "choices": [
      {
        "option": "Let's see what Mika has become after going aborad ! ",
        "next": "//END// Documents + storytelling flashfoward"
      },
      {
        "option": "Let's check out another character ",
        "next": "-1"
      }
    ]
  }
}